{
    "fluentMethods": true,
    "clientRootFolder": "",
    "relationships": [
        {
            "relationshipName": "user",
            "otherEntityName": "user",
            "relationshipType": "many-to-one",
            "otherEntityField": "login",
            "ownerSide": true,
            "otherEntityRelationshipName": "borrow"
        },
        {
            "relationshipName": "book",
            "otherEntityName": "book",
            "relationshipType": "many-to-one",
            "otherEntityField": "id"
        }
    ],
    "fields": [
        {
            "fieldName": "startDate",
            "fieldType": "LocalDate"
        },
        {
            "fieldName": "endDate",
            "fieldType": "LocalDate"
        },
        {
            "fieldName": "approved",
            "fieldType": "Boolean"
        }
    ],
    "changelogDate": "20191226193548",
    "dto": "no",
    "searchEngine": false,
    "service": "no",
    "entityTableName": "borrow",
    "databaseType": "sql",
    "jpaMetamodelFiltering": false,
    "pagination": "pagination"
}
